%YAML 1.1
%TAG !u! tag:unity3d.com,2011:
--- !u!114 &11400000
MonoBehaviour:
  m_ObjectHideFlags: 0
  m_CorrespondingSourceObject: {fileID: 0}
  m_PrefabInternal: {fileID: 0}
  m_GameObject: {fileID: 0}
  m_Enabled: 1
  m_EditorHideFlags: 0
  m_Script: {fileID: 11500000, guid: 9d1514134bc4fbd41bb739b1b9a49231, type: 3}
  m_Name: Rock Rule Tile
  m_EditorClassIdentifier: 
  m_DefaultSprite: {fileID: 21300002, guid: 0bd5ac49c34d81946b080276fb857f58, type: 3}
  m_DefaultGameObject: {fileID: 1846550538886728, guid: 0aa85ca9d27905847a45f0d74bf09cc6,
    type: 2}
  m_DefaultColliderType: 2
  m_TilingRules:
  - m_Neighbors: 0000000002000000000000000200000001000000000000000100000000000000
    m_Sprites:
    - {fileID: 21300000, guid: 0bd5ac49c34d81946b080276fb857f58, type: 3}
    m_GameObject: {fileID: 1846550538886728, guid: 0aa85ca9d27905847a45f0d74bf09cc6,
      type: 2}
    m_AnimationSpeed: 1
    m_PerlinScale: 0.5
    m_RuleTransform: 0
    m_Output: 0
    m_ColliderType: 2
    m_RandomTransform: 0
  - m_Neighbors: 0000000002000000000000000100000002000000000000000100000000000000
    m_Sprites:
    - {fileID: 21300016, guid: 0bd5ac49c34d81946b080276fb857f58, type: 3}
    m_GameObject: {fileID: 1846550538886728, guid: 0aa85ca9d27905847a45f0d74bf09cc6,
      type: 2}
    m_AnimationSpeed: 1
    m_PerlinScale: 0.5
    m_RuleTransform: 0
    m_Output: 0
    m_ColliderType: 2
    m_RandomTransform: 0
  - m_Neighbors: 0000000001000000000000000200000001000000000000000200000000000000
    m_Sprites:
    - {fileID: 21300072, guid: 0bd5ac49c34d81946b080276fb857f58, type: 3}
    m_GameObject: {fileID: 1846550538886728, guid: 0aa85ca9d27905847a45f0d74bf09cc6,
      type: 2}
    m_AnimationSpeed: 1
    m_PerlinScale: 0.5
    m_RuleTransform: 0
    m_Output: 0
    m_ColliderType: 2
    m_RandomTransform: 0
  - m_Neighbors: 0000000001000000000000000100000002000000000000000200000000000000
    m_Sprites:
    - {fileID: 21300084, guid: 0bd5ac49c34d81946b080276fb857f58, type: 3}
    m_GameObject: {fileID: 1846550538886728, guid: 0aa85ca9d27905847a45f0d74bf09cc6,
      type: 2}
    m_AnimationSpeed: 1
    m_PerlinScale: 0.5
    m_RuleTransform: 0
    m_Output: 0
    m_ColliderType: 2
    m_RandomTransform: 0
  - m_Neighbors: 0000000002000000000000000100000001000000000000000100000000000000
    m_Sprites:
    - {fileID: 21300012, guid: 0bd5ac49c34d81946b080276fb857f58, type: 3}
    m_GameObject: {fileID: 1846550538886728, guid: 0aa85ca9d27905847a45f0d74bf09cc6,
      type: 2}
    m_AnimationSpeed: 1
    m_PerlinScale: 0.5
    m_RuleTransform: 0
    m_Output: 0
    m_ColliderType: 2
    m_RandomTransform: 0
  - m_Neighbors: 0000000001000000000000000100000002000000000000000100000000000000
    m_Sprites:
    - {fileID: 21300040, guid: 0bd5ac49c34d81946b080276fb857f58, type: 3}
    m_GameObject: {fileID: 1846550538886728, guid: 0aa85ca9d27905847a45f0d74bf09cc6,
      type: 2}
    m_AnimationSpeed: 1
    m_PerlinScale: 0.5
    m_RuleTransform: 0
    m_Output: 0
    m_ColliderType: 2
    m_RandomTransform: 0
  - m_Neighbors: 0000000001000000000000000200000001000000000000000100000000000000
    m_Sprites:
    - {fileID: 21300024, guid: 0bd5ac49c34d81946b080276fb857f58, type: 3}
    m_GameObject: {fileID: 1846550538886728, guid: 0aa85ca9d27905847a45f0d74bf09cc6,
      type: 2}
    m_AnimationSpeed: 1
    m_PerlinScale: 0.5
    m_RuleTransform: 0
    m_Output: 0
    m_ColliderType: 2
    m_RandomTransform: 0
  - m_Neighbors: 0000000001000000000000000100000001000000000000000200000000000000
    m_Sprites:
    - {fileID: 21300060, guid: 0bd5ac49c34d81946b080276fb857f58, type: 3}
    m_GameObject: {fileID: 1846550538886728, guid: 0aa85ca9d27905847a45f0d74bf09cc6,
      type: 2}
    m_AnimationSpeed: 1
    m_PerlinScale: 0.5
    m_RuleTransform: 0
    m_Output: 0
    m_ColliderType: 2
    m_RandomTransform: 0
  - m_Neighbors: 0000000001000000000000000100000001000000000000000100000000000000
    m_Sprites:
    - {fileID: 21300026, guid: 0bd5ac49c34d81946b080276fb857f58, type: 3}
    - {fileID: 21300058, guid: 0bd5ac49c34d81946b080276fb857f58, type: 3}
    m_GameObject: {fileID: 1846550538886728, guid: 0aa85ca9d27905847a45f0d74bf09cc6,
      type: 2}
    m_AnimationSpeed: 1
    m_PerlinScale: 0.5
    m_RuleTransform: 0
    m_Output: 1
    m_ColliderType: 2
    m_RandomTransform: 0
